{
  "title": "Seamless SQL Optimization, v2. Tutorial",
  "description": "Seamless SQL optimization, v2. Author: Nikolay Samokhvalov, https://Postgres.ai (nik@postgres.ai, twitter @postgresmen)",
  "difficulty": "Intermediate",
  "time": "~2 hours",
  "details": {
    "steps": [
      {
        "title": "Step 1: Check your workspace",
        "text": "001.md"
      },
      {
        "title": "Step 2: See active queries",
        "text": "002.md"
      },
      {
        "title": "Step 3: Macro-analysis. pg_stat_statements. Top-5 by total_time",
        "text": "003.md"
      },
      {
        "title": "Step 4: Micro-analysis. EXPLAIN",
        "text": "004.md"
      },
      {
        "title": "Step 5. Optimization",
        "text": "005.md"
      },
      {
        "title": "Step 6. Do macro-analysis again",
        "text": "006.md"
      },
      {
        "title": "Step 7. Micro-analysis, again",
        "text": "007.md"
      },
      {
        "title": "Step 8. Avoid heavy count(*)",
        "text": "008.md"
      },
      {
        "title": "Step 9. Visualize EXPLAIN",
        "text": "009.md"
      },
      {
        "title": "Step 10. Try thin clones!",
        "text": "010.md"
      }
    ],
    "intro": {
      "code": "launch.sh",
      "text": "intro.md"
    },
    "finish": {
      "text": "finish.md"
    }
  },
  "environment": {
    "uilayout": "terminal"
  },
  "backend": {
    "imageid": "ubuntu:1804"
  }
}
